<svg width="156" height="133" viewBox="0 0 156 133" fill="none" xmlns="http://www.w3.org/2000/svg">
<path d="M39.136 97.432V5.55999L26.608 4.26399V0.807994H66.496V4.26399L53.968 5.55999V89.368C53.968 110.392 48.16 123.688 36.544 129.256C32.032 131.368 26.848 132.424 20.992 132.424C15.136 132.424 10.288 131.416 6.448 129.4C2.608 127.384 0.688 123.976 0.688 119.176C0.688 117.16 1.6 115.384 3.424 113.848C5.152 112.408 7.024 111.688 9.04 111.688C11.056 111.688 12.688 111.88 13.936 112.264C13.36 114.28 13.072 116.152 13.072 117.88C13.072 124.312 16.144 127.528 22.288 127.528C33.52 127.528 39.136 117.496 39.136 97.432ZM117.014 0.807994C128.63 0.807994 137.03 2.68 142.214 6.424C147.494 10.168 150.134 15.496 150.134 22.408C150.134 29.32 148.262 34.84 144.518 38.968C140.87 43 135.494 45.4 128.39 46.168C137.702 47.8 144.47 50.584 148.694 54.52C152.918 58.36 155.03 63.832 155.03 70.936C155.03 79.768 151.382 86.344 144.086 90.664C136.79 94.888 127.334 97 115.718 97H77.9901V93.544L88.7901 92.248V5.55999L76.2621 4.26399V0.807994H117.014ZM123.062 50.344C119.414 49.576 115.862 49.192 112.406 49.192C108.95 49.192 106.118 49.24 103.91 49.336V92.968C106.31 93.64 108.47 93.976 110.39 93.976C112.406 93.976 114.758 93.832 117.446 93.544C120.23 93.256 123.398 92.488 126.95 91.24C130.598 89.896 133.622 87.352 136.022 83.608C138.422 79.864 139.622 75.256 139.622 69.784C139.622 59.128 134.102 52.648 123.062 50.344ZM103.91 4.696V45.016H109.958C126.182 45.016 134.294 37.624 134.294 22.84C134.294 16.408 132.614 11.8 129.254 9.016C125.99 6.136 120.662 4.696 113.27 4.696H103.91Z" fill="#00202C"/>
</svg>
